…
```r
murders_tibble <- as_tibble(murders) %>% class() 
```

2. Gunakan fungsi group_by untuk mengkonversi dataset “US murders” menjadi sebuah tibble
yang dikelompokkan berdasarkan ‘region’. 

```r
as_tibble(murders) %>% group_by(region)
```

```
## # A tibble: 51 x 5
## # Groups:   region [4]
##    state                abb   region    population total
##    <chr>                <chr> <fct>          <dbl> <dbl>
##  1 Alabama              AL    South        4779736   135
##  2 Alaska               AK    West          710231    19
##  3 Arizona              AZ    West         6392017   232
##  4 Arkansas             AR    South        2915918    93
##  5 California           CA    West        37253956  1257
##  6 Colorado             CO    West         5029196    65
##  7 Connecticut          CT    Northeast    3574097    97
##  8 Delaware             DE    South         897934    38
##  9 District of Columbia DC    South         601723    99
## 10 Florida              FL    South       19687653   669
## # ... with 41 more rows
```
…
```
## # A tibble: 100 x 1
##      sum
##    <int>
##  1     1
##  2     3
##  3     6
##  4    10
##  5    15
##  6    21
##  7    28
##  8    36
##  9    45
## 10    55
## # ... with 90 more rows
```
